<?xml version="1.0" encoding="utf-8"?>
<!-- Generator: Adobe Illustrator 21.1.0, SVG Export Plug-In . SVG Version: 6.00 Build 0)  -->
<svg version="1.1" id="Layer_1" xmlns="http://www.w3.org/2000/svg" xmlns:xlink="http://www.w3.org/1999/xlink" x="0px" y="0px"
	 width="684px" height="203px" viewBox="0 0 684 203" style="enable-background:new 0 0 684 203;" xml:space="preserve">
<style type="text/css">
	.st0{clip-path:url(#SVGID_2_);fill:#E7CFB2;}
	.st1{clip-path:url(#SVGID_4_);fill:#E7CFB2;}
	.st2{clip-path:url(#SVGID_6_);fill:#E7CFB2;}
	.st3{clip-path:url(#SVGID_8_);}
	.st4{fill:#E7CFB2;}
</style>
<g>
	<g>
		<defs>
			<rect id="SVGID_1_" x="-118.3" y="-4" width="918.9" height="206.1"/>
		</defs>
		<clipPath id="SVGID_2_">
			<use xlink:href="#SVGID_1_"  style="overflow:visible;"/>
		</clipPath>
		<path class="st0" d="M202.6,85.6c-0.6-0.3-1.6-0.5-2.1-0.9c-0.7-0.5-0.5,0.2-0.4-0.8c0.1-1.2,0.8-2.6,1.2-3.8
			c0.7-2.2,1.7-4.2,2.6-6.2c0.5-1.2,1.1-2.6,1-4c-0.1-1.3-2.4-3.9-3.5-5.2c-1-1.2-3.9-3.7-5.5-4.1c-1.9-0.4-2.8-2.3-4,0.7
			c-2,5.2-6.2,7.5-10.9,10c-2.1,1.1-4.2,2.3-6.2,3.5c-8.4,4.9-16.9,9.8-25.5,14.5c-4.3,2.4-4.4,2.5-8.9,4.4c-2,0.9-6.6,4.3-9.5,1
			c-5.2-6,5.1-16.3,7.7-19c1.1-1.2,3.3-2.6,3.5-4.3c0.1-2-2.4-3.4-3.6-4.6c-0.4-0.4-0.9-0.9-1.3-1.3c-0.3-0.3-0.6-0.6-0.9-0.8
			c-0.1,0.1-0.3,0.3-0.4,0.4c-0.6,0.4-1.2,1.2-1.8,1.7c-1.7,1.3-3.8,2.3-5.6,3.4c-4,2.2-7.9,4.4-11.5,7.1
			c-11.7,8.9-24.7,18.7-38.4,24.3c-2.1,0.9-4.3,1.5-6.5,2.3c-0.1-4.6,1.7-8.6,4.2-12.4c2.9-4.4,6.1-8.7,9.4-12.9
			c3.4-4.4,7-8.6,10.6-12.9c1.2-1.4,3.7-3.3,3.1-5.4c-0.5-1.8-3.3-3.4-4.7-4.6c1.6,1.4-27.2,21.6-30,23.2c-6.8,4-13.7,7.7-20.5,11.7
			c-6.7,4-12.8,9.3-20,12.2c-11.4,4.6-11.1,2-11.3,2.2c0.4-0.9,1.5-2.5,1.5-3.3c0-0.5-0.8-1.5-1.3-1.8c-1.3-1-3.1-0.2-4.5,0.1
			c0,1.7-0.3,3.3,0.9,4.6c1.1,1.2,2.1,2.5,3.3,3.6c5.3,4.9,19.6-2.8,25.9-6.4c5.4-3.1,10.8-6.8,16.3-9.8c3.4-1.8,13.9-9.3,16.4-7.9
			c-0.1,0.7-0.9,2.2-1.2,2.9c-1.1,2.1-2.3,4.1-3.3,6.2c-2.1,4.4-1,8.8,1.9,12.6c1.2,1.6,2.9,3.2,4.9,3.3c2.5,0.1,5.4-0.6,7.7-1.4
			c5.3-1.6,10-4.9,14.6-7.9c9.6-6.2,18.9-12.8,28.6-18.8c0.7,2.8,0,4.2-0.2,6c-0.1,1.4-0.1,3.4,0,4.8c1,10.1,11.2,14.4,19.6,9.4
			c6.5-3.9,13-7.5,19.4-11.5c5.6-3.4,11-7.1,16.7-10.3c3.4-1.9,4.1-2.2,9.9-5.6c3.4-2,4-3.4,5.2-3.9c0.9-0.4,1.5,1.4,1.9,1.6
			c-1.7,4.8-3.6,9.3-5.5,14c-1,2.4-1.3,4.5-0.1,6.8c0.8,1.6,2.1,3.4,4,3.7c1.9,0.3,3.6-1,4.9-2.2c0.9-0.8,1.7-1.7,2.5-2.5
			c0.8-0.8,2.2-1.4,2.8-2.4C206.6,87.2,203.9,86.2,202.6,85.6"/>
	</g>
	<g>
		<defs>
			<rect id="SVGID_3_" x="-118.3" y="-4" width="918.9" height="206.1"/>
		</defs>
		<clipPath id="SVGID_4_">
			<use xlink:href="#SVGID_3_"  style="overflow:visible;"/>
		</clipPath>
		<path class="st1" d="M671.9,100.2c-0.4-0.4-0.9-0.6-1.4-0.8c-1.9-0.6-3.9-0.2-5.8,0c-4.2,0.4-8.5-0.1-12.5-1.7
			c-3.8-1.6-6.6-4.4-10-6.8c-4.6-3.4-10.1-5.2-15.8-6c-3.2-0.5-6.5-0.7-9.8-0.4c-7.2,0.6-13.5,4.4-19.8,7.7
			c-3.2,1.7-6.4,3.3-9.9,4.3c-3.8,1.1-5.2-0.2-5.9-4.1c-0.5-2.8,0.4-6.2-1.2-8.1c-0.7-0.9-2.9-2.5-4.1-2.7c-1.4-0.3-3.2,0.2-4.6,0.4
			c-12.4,1.4-25.4,10.8-43.9,15.1c-2.9,0.7-7.3,0.7-10.2-0.2c-1.5-0.5-5.7-2.9-4.6-3.4c4.4-1.7,9.9-3.1,13.9-5.7
			c2.7-1.7,5.2-4.4,5.2-7.7c-0.1-3.6-2.5-7.3-6.2-8.1c-4.5-0.9-9.5-0.3-13.4,2.2c-4.5,2.8-6.9,7.9-7.3,13.1
			c-0.1,0.7-0.1,1.5-0.1,2.2c0,0.5-0.2,1-0.7,1.3c-1,0.6-2.2,0.7-3.2,1.1c-2.8,0.8-5.3,1.4-8.2,1c-2.5-0.4-4.9-1.2-7-2.5
			c-2.3-1.4-4.3-3.3-6.7-4.7c-2.5-1.4-5.6-1.9-8.4-1.6c-6.3,0.7-12.9,4.8-18.7,7.3c-7.7,3.4-15.6,6.6-23.1,10.3
			c-1.8,0.7-3.8,0.6-5.7,0.9c0.2-2,0.5-3.3,1.5-5c6-9.9,14.1-18.2,22.7-25.9c8.5-7.7,17.3-15.6,26.9-21.9c7.1-4.7,13.7-10,20.6-14.9
			c1.6-1.1,3.2-2.3,4.8-3.4c1-0.6,2-1.2,2.8-2.1c2-2.5-0.2-6.8-1.4-9.3c-1.4-2.9-3.3-5.3-6.2-6.8c-2.6-1.3-5.6-1.8-8.5-2.3
			c-3.7-0.7-7.3-1.2-11.1-1.1c-4.2,0.1-8.3,0.1-12.5,0.2c-10.7,0.3-21.3,1.5-31.9,2.6c-10.4,1.1-21.3,1.2-31.5,2.9
			c-4.1,0.7,1.1,6,2.2,7.4c0.6-1,0.9-1,2.1-1.2c0.7-0.2,1.4-0.3,2.2-0.4c16.2-1.8,32.5-3.2,48.7-4.3c13.6-1,27.4-0.4,40.6,2.7
			c3.4,0.8,1.8,2.9-0.1,4.5c-2.6,2.2-5.3,4.4-8,6.5c-5.5,4.3-11.4,8.1-17,12.2c-5.7,4.1-11.1,8.8-16.5,13.3
			c-5.5,4.6-11,9.2-16.2,14.2c-5,4.8-10.1,9.7-14.5,15.2c-3.7,4.6-7.8,10.6-7.2,16.8c0.4,4.7,4,8.7,8.9,8.6c3-0.1,5.8-1.6,8.4-3
			c3.1-1.7,6.3-3.3,9.4-5c6.2-3.3,12.4-6.4,18.9-8.9c5.5-2.2,12.1-5.6,18.1-3.6c2.1,0.7,3.4,2.7,4.9,4.2c3.7,3.7,9.1,4.8,14.1,3.6
			c2.5-0.6,3.8-1.2,6.2-2.1c2-0.8,2.2-0.5,2.9,1.3c1.4,3.7,6.8,6.3,10.8,6.9c9.6,1.3,18.9-2.2,27.6-5.7c4.5-1.8,9.1-3.6,13.6-5.4
			c4.3-1.7,12.5-5.7,14.5-4.4c2,1.3,0.6,9,2,12.4c0.6,1.3,1.3,2.6,2.5,3.4c2.4,1.5,6.1,0.8,8.7,0c2.9-0.8,5.5-2.2,8-3.7
			c5.1-3,9.9-6.7,15.6-8.3c10-2.8,21.2-1.6,30,4c6.3,4,11.9,10.4,19.4,10.9c3.2,0.2,6.4-0.7,9.5-1.6c1.4-0.4,2.9-0.9,3.5-2.2
			C673.6,102.6,673,101.1,671.9,100.2 M510.1,88c-0.2-0.4-0.5-1.8,0.3-4.2c1.2-3.9,5.3-5.8,8.9-6.5c1.4-0.3,10.4-1.6,9.9,1.1
			C528.6,81.5,517.5,85.8,510.1,88"/>
	</g>
	<g>
		<defs>
			<rect id="SVGID_5_" x="-118.3" y="-4" width="918.9" height="206.1"/>
		</defs>
		<clipPath id="SVGID_6_">
			<use xlink:href="#SVGID_5_"  style="overflow:visible;"/>
		</clipPath>
		<path class="st2" d="M389.1,91.9c-0.1-0.1-0.2-0.3-0.4-0.4c-2.8-2.8-8.2-10.4-12.7-9.9c-1.7,0.2-3.5,1.4-5,2.1
			c-1.6,0.7-3.3,1.5-5,2.1c-1.8,0.7-7.6,2.8-8.6,0.5c-0.5-1.1-0.5-2.4-1-3.5c-0.4-1-1.1-1.9-1.7-2.7c-1.2-1.6-3.3-4-5.5-4.1
			c-1.3-0.1-2.9,0.8-4.2,1.2c-1.5,0.5-3.1,0.9-4.5,1.6c-3.6,1.6-6.7,4-10.5,5.2c-3.9,1.2-6.6,3.1-11.7,3.7c0.4-0.2,0.9-3.7,1-4.3
			c0.2-1.8,0-3.5-1.2-5c-0.5-0.6-1.1-1.2-1.7-1.8c-0.3-0.3-0.6-0.6-0.9-0.9c-0.6-0.6-0.2-0.5-0.9-0.2c-0.7,0.3-1.6,1.3-2.2,1.8
			c-0.7,0.6-1.4,1.2-2.2,1.8c-5,4.1-9.8,8.8-15.3,12.2c-2.9,1.8-5.8,3.4-8.9,4.8c-1.5,0.7-3,1.3-4.5,1.8c-1,0.3-2.5,0.9-3.5,0.4
			c-2.2-1.1,0.1-4.6,0.7-6c2.2-4.6,5.6-8.7,9.7-11.7c3.9-2.9,11.2-8.8,16.2-9.1c1.9-0.1,3.5,0.4,5.2,1.3c0.7,0.4,2.6,1.8,3.4,1.4
			c0,0-1.9-2.8-2.1-3c-1.2-1.3-2.8-2.2-4.3-2.9c-7.7-3.4-16.8,3-23.2,7.4c-4.8,3.3-8.5,7.9-10.8,13.2c-2.2,5.1,0.3,11.1,4.6,14.3
			c2.4,1.7,5.4,1.7,8,0.6c3.2-1.3,6.2-3.4,9.1-5.3c3.1-1.9,6.3-3.9,9.3-6c2.9-2,5.6-4.2,8.4-6.3c1.4,2.3,2.3,4.7,4.7,6.3
			c5.7,3.8,14.4,0,21.4-3.4c2.2-1.1,4.3-2.1,6-2.9c1.6-0.7,3.3-1.8,5.1-2.1c2.5-0.5,2.9,2.6,3.8,4.3c1.1,2.2,2.7,4.2,4.9,5.2
			c2.5,1.1,5.1,0.7,7.5-0.3c3.4-1.3,6.9-2.1,10.5-3.1c1.5-0.4,2.8-0.9,4.2,0c1,0.7,2.7,4.2,4.6,5.9c1.6,1.4,2.5,2.4,4.6,1.5
			c0.5-0.2,1.5-0.5,1.6-1C391.8,94.9,390.4,93.2,389.1,91.9"/>
	</g>
	<g>
		<defs>
			<rect id="SVGID_7_" x="-118.3" y="-4" width="918.9" height="206.1"/>
		</defs>
		<clipPath id="SVGID_8_">
			<use xlink:href="#SVGID_7_"  style="overflow:visible;"/>
		</clipPath>
		<g class="st3">
			<path class="st4" d="M202.6,85.6c-0.6-0.3-1.6-0.5-2.1-0.9c-0.7-0.5-0.5,0.2-0.4-0.8c0.1-1.2,0.8-2.6,1.2-3.8
				c0.7-2.2,1.7-4.2,2.6-6.2c0.5-1.2,1.1-2.6,1-4c-0.1-1.3-2.4-3.9-3.5-5.2c-1-1.2-3.9-3.7-5.5-4.1c-1.9-0.4-2.8-2.3-4,0.7
				c-2,5.2-6.2,7.5-10.9,10c-2.1,1.1-4.2,2.3-6.2,3.5c-8.4,4.9-16.9,9.8-25.5,14.5c-4.3,2.4-4.4,2.5-8.9,4.4c-2,0.9-6.6,4.3-9.5,1
				c-5.2-6,5.1-16.3,7.7-19c1.1-1.2,3.3-2.6,3.5-4.3c0.1-2-2.4-3.4-3.6-4.6c-0.4-0.4-0.9-0.9-1.3-1.3c-0.3-0.3-0.6-0.6-0.9-0.8
				c-0.1,0.1-0.3,0.3-0.4,0.4c-0.6,0.4-1.2,1.2-1.8,1.7c-1.7,1.3-3.8,2.3-5.6,3.4c-4,2.2-7.9,4.4-11.5,7.1
				c-11.7,8.9-24.7,18.7-38.4,24.3c-2.1,0.9-4.3,1.5-6.5,2.3c-0.1-4.6,1.7-8.6,4.2-12.4c2.9-4.4,6.1-8.7,9.4-12.9
				c3.4-4.4,7-8.6,10.6-12.9c1.2-1.4,3.7-3.3,3.1-5.4c-0.5-1.8-3.3-3.4-4.7-4.6c1.6,1.4-27.2,21.6-30,23.2
				c-6.8,4-13.7,7.7-20.5,11.7c-6.7,4-12.8,9.3-20,12.2c-11.4,4.6-11.1,2-11.3,2.2c0.4-0.9,1.5-2.5,1.5-3.3c0-0.5-0.8-1.5-1.3-1.8
				c-1.3-1-3.1-0.2-4.5,0.1c0,1.7-0.3,3.3,0.9,4.6c1.1,1.2,2.1,2.5,3.3,3.6c5.3,4.9,19.6-2.8,25.9-6.4c5.4-3.1,10.8-6.8,16.3-9.8
				c3.4-1.8,13.9-9.3,16.4-7.9c-0.1,0.7-0.9,2.2-1.2,2.9c-1.1,2.1-2.3,4.1-3.3,6.2c-2.1,4.4-1,8.8,1.9,12.6c1.2,1.6,2.9,3.2,4.9,3.3
				c2.5,0.1,5.4-0.6,7.7-1.4c5.3-1.6,10-4.9,14.6-7.9c9.6-6.2,18.9-12.8,28.6-18.8c0.7,2.8,0,4.2-0.2,6c-0.1,1.4-0.1,3.4,0,4.8
				c1,10.1,11.2,14.4,19.6,9.4c6.5-3.9,13-7.5,19.4-11.5c5.6-3.4,11-7.1,16.7-10.3c3.4-1.9,4.1-2.2,9.9-5.6c3.4-2,4-3.4,5.2-3.9
				c0.9-0.4,1.5,1.4,1.9,1.6c-1.7,4.8-3.6,9.3-5.5,14c-1,2.4-1.3,4.5-0.1,6.8c0.8,1.6,2.1,3.4,4,3.7c1.9,0.3,3.6-1,4.9-2.2
				c0.9-0.8,1.7-1.7,2.5-2.5c0.8-0.8,2.2-1.4,2.8-2.4C206.6,87.2,203.9,86.2,202.6,85.6"/>
			<path class="st4" d="M265.6,3.7c-1.2,0-1.3,0.1-1.9,1.1c-0.4,0.5-0.7,1.1-1.1,1.6c-0.7,1.1-1.4,2.1-2.2,3.2
				c-10.3,15.3-20.8,33-30.1,49.3c-6.1,10.7-12.7,23-12.6,24.5c0.3,2.9,5,8.4,8,8.6c0,0,5.2-11.9,11.6-15.2c2.3-1.2,4.6-2.4,7.1-2.9
				c2-0.4,4-0.3,5.9,0c1.7,0.3,4.4,0.5,5.6,2c1,1.3,0.5,3.1,0.2,4.6c-0.9,3.4-2.8,6.3-5.7,8.3c-3.5,2.4-8,3.8-12.1,4.9
				c-4.5,1.3-9.1,1.9-13.6,3.4c-1.3,0.4-2.6,0.9-3.9,1.3c-0.4,0.1-1.2,0.2-1.6,0.5c-0.4,0.3-0.3,0.3-0.5,0.9
				c-0.3,1.3,0.3,3.1,1.4,3.9c1.7,1.2,4.7,1.3,6.6,1.3c2.2,0.1,4.2-0.4,6.3-1c4.8-1.4,9.5-3,14.1-4.7c4.3-1.6,8.8-3,11.9-6.5
				c2.6-2.9,4.2-7.1,3.2-10.9c-0.6-2.2-1.9-3.8-3.3-5.6c-1.1-1.4-2-2.8-3.3-4.1c-3.5-3.4-8.7-4.2-13.4-3.8c-2.4,0.2-4.8,0.7-7,1.6
				c-1.3,0.6-3.3,1.4-5.1,3c-0.3,0.3,2.1-2.7,1.7-2.7c3.1-5.2,6.2-10.3,9.4-15.5c5.8-9.4,11-19.2,16.5-28.7c2.5-4.4,5.9-8.4,8.1-13
				c0.5-1,1-1.8,1.8-2.6c0.7-0.6,1.3-1.3,1.2-2.3C268.9,6.3,266.8,4.8,265.6,3.7"/>
			<path class="st4" d="M671.9,100.2c-0.4-0.4-0.9-0.6-1.4-0.8c-1.9-0.6-3.9-0.2-5.8,0c-4.2,0.4-8.5-0.1-12.5-1.7
				c-3.8-1.6-6.6-4.4-10-6.8c-4.6-3.4-10.1-5.2-15.8-6c-3.2-0.5-6.5-0.7-9.8-0.4c-7.2,0.6-13.5,4.4-19.8,7.7
				c-3.2,1.7-6.4,3.3-9.9,4.3c-3.8,1.1-5.2-0.2-5.9-4.1c-0.5-2.8,0.4-6.2-1.2-8.1c-0.7-0.9-2.9-2.5-4.1-2.7
				c-1.4-0.3-3.2,0.2-4.6,0.4c-12.4,1.4-25.4,10.8-43.9,15.1c-2.9,0.7-7.3,0.7-10.2-0.2c-1.5-0.5-5.7-2.9-4.6-3.4
				c4.4-1.7,9.9-3.1,13.9-5.7c2.7-1.7,5.2-4.4,5.2-7.7c-0.1-3.6-2.5-7.3-6.2-8.1c-4.5-0.9-9.5-0.3-13.4,2.2
				c-4.5,2.8-6.9,7.9-7.3,13.1c-0.1,0.7-0.1,1.5-0.1,2.2c0,0.5-0.2,1-0.7,1.3c-1,0.6-2.2,0.7-3.2,1.1c-2.8,0.8-5.3,1.4-8.2,1
				c-2.5-0.4-4.9-1.2-7-2.5c-2.3-1.4-4.3-3.3-6.7-4.7c-2.5-1.4-5.6-1.9-8.4-1.6c-6.3,0.7-12.9,4.8-18.7,7.3
				c-7.7,3.4-15.6,6.6-23.1,10.3c-1.8,0.7-3.8,0.6-5.7,0.9c0.2-2,0.5-3.3,1.5-5c6-9.9,14.1-18.2,22.7-25.9
				c8.5-7.7,17.3-15.6,26.9-21.9c7.1-4.7,13.7-10,20.6-14.9c1.6-1.1,3.2-2.3,4.8-3.4c1-0.6,2-1.2,2.8-2.1c2-2.5-0.2-6.8-1.4-9.3
				c-1.4-2.9-3.3-5.3-6.2-6.8c-2.6-1.3-5.6-1.8-8.5-2.3c-3.7-0.7-7.3-1.2-11.1-1.1c-4.2,0.1-8.3,0.1-12.5,0.2
				c-10.7,0.3-21.3,1.5-31.9,2.6c-10.4,1.1-21.3,1.2-31.5,2.9c-4.1,0.7,1.1,6,2.2,7.4c0.6-1,0.9-1,2.1-1.2c0.7-0.2,1.4-0.3,2.2-0.4
				c16.2-1.8,32.5-3.2,48.7-4.3c13.6-1,27.4-0.4,40.6,2.7c3.4,0.8,1.8,2.9-0.1,4.5c-2.6,2.2-5.3,4.4-8,6.5
				c-5.5,4.3-11.4,8.1-17,12.2c-5.7,4.1-11.1,8.8-16.5,13.3c-5.5,4.6-11,9.2-16.2,14.2c-5,4.8-10.1,9.7-14.5,15.2
				c-3.7,4.6-7.8,10.6-7.2,16.8c0.4,4.7,4,8.7,8.9,8.6c3-0.1,5.8-1.6,8.4-3c3.1-1.7,6.3-3.3,9.4-5c6.2-3.3,12.4-6.4,18.9-8.9
				c5.5-2.2,12.1-5.6,18.1-3.6c2.1,0.7,3.4,2.7,4.9,4.2c3.7,3.7,9.1,4.8,14.1,3.6c2.5-0.6,3.8-1.2,6.2-2.1c2-0.8,2.2-0.5,2.9,1.3
				c1.4,3.7,6.8,6.3,10.8,6.9c9.6,1.3,18.9-2.2,27.6-5.7c4.5-1.8,9.1-3.6,13.6-5.4c4.3-1.7,12.5-5.7,14.5-4.4c2,1.3,0.6,9,2,12.4
				c0.6,1.3,1.3,2.6,2.5,3.4c2.4,1.5,6.1,0.8,8.7,0c2.9-0.8,5.5-2.2,8-3.7c5.1-3,9.9-6.7,15.6-8.3c10-2.8,21.2-1.6,30,4
				c6.3,4,11.9,10.4,19.4,10.9c3.2,0.2,6.4-0.7,9.5-1.6c1.4-0.4,2.9-0.9,3.5-2.2C673.6,102.6,673,101.1,671.9,100.2 M510.1,88
				c-0.2-0.4-0.5-1.8,0.3-4.2c1.2-3.9,5.3-5.8,8.9-6.5c1.4-0.3,10.4-1.6,9.9,1.1C528.6,81.5,517.5,85.8,510.1,88"/>
			<path class="st4" d="M389.1,91.9c-0.1-0.1-0.2-0.3-0.4-0.4c-2.8-2.8-8.2-10.4-12.7-9.9c-1.7,0.2-3.5,1.4-5,2.1
				c-1.6,0.7-3.3,1.5-5,2.1c-1.8,0.7-7.6,2.8-8.6,0.5c-0.5-1.1-0.5-2.4-1-3.5c-0.4-1-1.1-1.9-1.7-2.7c-1.2-1.6-3.3-4-5.5-4.1
				c-1.3-0.1-2.9,0.8-4.2,1.2c-1.5,0.5-3.1,0.9-4.5,1.6c-3.6,1.6-6.7,4-10.5,5.2c-3.9,1.2-6.6,3.1-11.7,3.7c0.4-0.2,0.9-3.7,1-4.3
				c0.2-1.8,0-3.5-1.2-5c-0.5-0.6-1.1-1.2-1.7-1.8c-0.3-0.3-0.6-0.6-0.9-0.9c-0.6-0.6-0.2-0.5-0.9-0.2c-0.7,0.3-1.6,1.3-2.2,1.8
				c-0.7,0.6-1.4,1.2-2.2,1.8c-5,4.1-9.8,8.8-15.3,12.2c-2.9,1.8-5.8,3.4-8.9,4.8c-1.5,0.7-3,1.3-4.5,1.8c-1,0.3-2.5,0.9-3.5,0.4
				c-2.2-1.1,0.1-4.6,0.7-6c2.2-4.6,5.6-8.7,9.7-11.7c3.9-2.9,11.2-8.8,16.2-9.1c1.9-0.1,3.5,0.4,5.2,1.3c0.7,0.4,2.6,1.8,3.4,1.4
				c0,0-1.9-2.8-2.1-3c-1.2-1.3-2.8-2.2-4.3-2.9c-7.7-3.4-16.8,3-23.2,7.4c-4.8,3.3-8.5,7.9-10.8,13.2c-2.2,5.1,0.3,11.1,4.6,14.3
				c2.4,1.7,5.4,1.7,8,0.6c3.2-1.3,6.2-3.4,9.1-5.3c3.1-1.9,6.3-3.9,9.3-6c2.9-2,5.6-4.2,8.4-6.3c1.4,2.3,2.3,4.7,4.7,6.3
				c5.7,3.8,14.4,0,21.4-3.4c2.2-1.1,4.3-2.1,6-2.9c1.6-0.7,3.3-1.8,5.1-2.1c2.5-0.5,2.9,2.6,3.8,4.3c1.1,2.2,2.7,4.2,4.9,5.2
				c2.5,1.1,5.1,0.7,7.5-0.3c3.4-1.3,6.9-2.1,10.5-3.1c1.5-0.4,2.8-0.9,4.2,0c1,0.7,2.7,4.2,4.6,5.9c1.6,1.4,2.5,2.4,4.6,1.5
				c0.5-0.2,1.5-0.5,1.6-1C391.8,94.9,390.4,93.2,389.1,91.9"/>
		</g>
	</g>
</g>
<g>
	<g>
		<path class="st4" d="M38.9,150.7h-9l-2.3,5.4h-2.9l8.3-18.4h3.1l8.3,18.4h-3.1L38.9,150.7z M34.4,140.2l-3.4,8.1h7L34.4,140.2z"/>
		<path class="st4" d="M80.7,137.6h9.5c4,0,6.2,1.9,6.2,5.3c0,3.4-2.1,5.7-6,5.7h-6.9v7.4h-2.7L80.7,137.6L80.7,137.6z M90,146.3
			c2.7,0,3.6-1.5,3.6-3.3c0-1.7-1-3-3.1-3h-7.1v6.3H90z"/>
		<path class="st4" d="M127.3,147.4h-12.5v8.6H112v-18.4h2.7v7.4h12.5v-7.4h2.7V156h-2.7V147.4z"/>
		<path class="st4" d="M147.1,137.6h2.7V156h-2.7V137.6z"/>
		<path class="st4" d="M166.9,137.6h2.7v16h11.2v2.4h-13.9V137.6z"/>
		<path class="st4" d="M205.1,137.2c7.4,0,10.2,4.9,10.2,9.6c0,4.7-2.8,9.7-10.2,9.7s-10.2-4.9-10.2-9.7
			C194.9,142.1,197.7,137.2,205.1,137.2z M205.1,139.5c-4.2,0-7.5,2.4-7.5,7.3c0,4.9,3.3,7.3,7.5,7.3c4.2,0,7.5-2.4,7.5-7.3
			S209.3,139.5,205.1,139.5z"/>
		<path class="st4" d="M232.3,150c0.1,3.3,3.1,4.1,5.9,4.1c2.9,0,5-1.1,5-3.1c0-1.7-1.3-2.4-3.4-2.7l-4.2-0.7
			c-2.2-0.4-5.5-1.2-5.5-4.8c0-3.3,2.7-5.6,7.4-5.6c3.7,0,7.6,1.3,7.8,5.8h-2.7c-0.2-1.4-1.1-3.4-5.5-3.4c-2,0-4.3,0.8-4.3,3
			c0,1.1,0.7,2,3,2.4l4.5,0.8c1.4,0.3,5.5,1,5.5,4.7c0,4.7-4.2,6-7.9,6c-4.1,0-8.4-1.4-8.4-6.5L232.3,150L232.3,150z"/>
		<path class="st4" d="M270.4,137.2c7.4,0,10.2,4.9,10.2,9.6c0,4.7-2.8,9.7-10.2,9.7c-7.4,0-10.2-4.9-10.2-9.7
			C260.2,142.1,263,137.2,270.4,137.2z M270.4,139.5c-4.2,0-7.5,2.4-7.5,7.3c0,4.9,3.3,7.3,7.5,7.3c4.2,0,7.5-2.4,7.5-7.3
			S274.6,139.5,270.4,139.5z"/>
		<path class="st4" d="M296.5,137.6h9.5c4,0,6.2,1.9,6.2,5.3c0,3.4-2.1,5.7-6,5.7h-6.9v7.4h-2.7L296.5,137.6L296.5,137.6z
			 M305.8,146.3c2.7,0,3.6-1.5,3.6-3.3c0-1.7-1-3-3.1-3h-7.1v6.3H305.8z"/>
		<path class="st4" d="M343.1,147.4h-12.5v8.6h-2.7v-18.4h2.7v7.4h12.5v-7.4h2.7V156h-2.7V147.4z"/>
		<path class="st4" d="M376.1,137.6h3.3l-8.1,10.7v7.7h-2.7v-7.6l-8.1-10.8h3.5l6,8.4L376.1,137.6z"/>
		<path class="st4" d="M424.7,137.2c7.4,0,10.2,4.9,10.2,9.6c0,4.7-2.8,9.7-10.2,9.7c-7.4,0-10.2-4.9-10.2-9.7
			C414.5,142.1,417.3,137.2,424.7,137.2z M424.7,139.5c-4.2,0-7.5,2.4-7.5,7.3c0,4.9,3.3,7.3,7.5,7.3c4.2,0,7.5-2.4,7.5-7.3
			S428.9,139.5,424.7,139.5z"/>
		<path class="st4" d="M450.8,137.6H465v2.4h-11.5v5.4h11v2.4h-11v8.2h-2.7V137.6z"/>
		<path class="st4" d="M501.8,137.6h2.7v16h11.2v2.4h-13.9L501.8,137.6L501.8,137.6z"/>
		<path class="st4" d="M531,137.6h2.7V156H531V137.6z"/>
		<path class="st4" d="M564.8,137.6h2.9l-8.1,18.4h-2.9l-8.2-18.4h3.1l6.6,15.5L564.8,137.6z"/>
		<path class="st4" d="M582.5,137.6h2.7V156h-2.7V137.6z"/>
		<path class="st4" d="M605.2,141.4L605.2,141.4l-0.1,14.6h-2.7v-18.4h3.2l11.8,14.6h0.1v-14.6h2.7V156H617L605.2,141.4z"/>
		<path class="st4" d="M647.1,146.1h8.4v9.9h-2l-0.5-2.6c-1.2,1.4-3.2,3.1-7.1,3.1c-7.4,0-9.7-5.3-9.7-9.3c0-7.1,4.9-10,9.6-10
			c3.8,0,8.1,1.2,9.2,6.3h-2.9c-0.8-2.5-2.8-3.9-6.2-3.9c-4.9,0-7,3.4-7,7.4c0,5.2,3.3,7.2,7.2,7.2c4,0,6.6-2.4,6.9-5.6h-6
			L647.1,146.1L647.1,146.1z"/>
	</g>
	<g>
		<path class="st4" d="M128.5,173.2h10.2c3.9,0,5.7,1.7,5.7,4.6c0,2.2-1.2,3.3-2.7,3.9v0.1c2.1,0.5,3.5,1.9,3.5,4.5
			c0,2.6-1.8,5.3-5.8,5.3h-10.9L128.5,173.2L128.5,173.2z M138.6,180.8c2,0,3-1.1,3-2.6c0-1.7-0.9-2.7-3.1-2.7h-7.3v5.2H138.6z
			 M138.6,189.2c3,0,3.8-1.5,3.8-3.1c0-1.4-0.8-2.9-3.6-2.9h-7.6v6H138.6z"/>
		<path class="st4" d="M174.8,173.2h3.3l-8.1,10.7v7.7h-2.7V184l-8.1-10.8h3.5l6,8.4L174.8,173.2z"/>
		<path class="st4" d="M214.2,173.2h9.3c5.5,0,8,3.6,8,8.9c0,5.1-2.2,9.4-7.9,9.4h-9.5L214.2,173.2L214.2,173.2z M223.6,189.2
			c4.5,0,5.3-3.8,5.3-7c0-3.2-1.1-6.6-5.8-6.6H217v13.6H223.6z"/>
		<path class="st4" d="M256.8,172.7c7.4,0,10.2,4.9,10.2,9.6c0,4.7-2.8,9.7-10.2,9.7c-7.4,0-10.2-4.9-10.2-9.7
			C246.6,177.7,249.4,172.7,256.8,172.7z M256.8,175.1c-4.2,0-7.5,2.4-7.5,7.3s3.3,7.3,7.5,7.3c4.2,0,7.5-2.4,7.5-7.3
			S261,175.1,256.8,175.1z"/>
		<path class="st4" d="M285.7,176.9L285.7,176.9l-0.1,14.6h-2.7v-18.4h3.2l11.8,14.6h0.1v-14.6h2.7v18.4h-3.2L285.7,176.9z"/>
		<path class="st4" d="M320.5,176.9L320.5,176.9l-0.1,14.6h-2.7v-18.4h3.2l11.8,14.6h0.1v-14.6h2.7v18.4h-3.2L320.5,176.9z"/>
		<path class="st4" d="M364.6,186.2h-9l-2.3,5.4h-2.9l8.3-18.4h3.1l8.3,18.4h-3.1L364.6,186.2z M360.1,175.7l-3.4,8.1h7L360.1,175.7
			z"/>
		<path class="st4" d="M412.4,182.6l-3.3,3v6h-2.7v-18.4h2.7v9.2l10.3-9.2h3.9l-8.7,7.6l9.2,10.8H420L412.4,182.6z"/>
		<path class="st4" d="M450.9,186.2h-9l-2.3,5.4h-2.9l8.3-18.4h3.1l8.3,18.4h-3.1L450.9,186.2z M446.3,175.7l-3.4,8.1h7L446.3,175.7
			z"/>
		<path class="st4" d="M471.1,173.2h11.4c3.7,0,5,2.5,5,4.9c0,2.2-1.1,3.9-3.1,4.5v0.1c1.6,0.2,2.6,1.7,2.7,3.9
			c0.2,3.4,0.3,4.3,0.9,5h-2.9c-0.4-0.5-0.4-1.3-0.6-3.5c-0.2-3.3-1.3-4.3-3.6-4.3h-7.1v7.8h-2.7L471.1,173.2L471.1,173.2z
			 M481.5,181.4c2.7,0,3.3-1.6,3.3-2.9c0-1.7-1.1-2.9-3.2-2.9h-7.7v5.8H481.5z"/>
		<path class="st4" d="M515.6,186.2h-9l-2.3,5.4h-2.9l8.3-18.4h3.1l8.3,18.4H518L515.6,186.2z M511.1,175.7l-3.4,8.1h7L511.1,175.7z
			"/>
		<path class="st4" d="M538.7,176.9L538.7,176.9l-0.1,14.6h-2.7v-18.4h3.2l11.8,14.6h0.1v-14.6h2.7v18.4h-3.2L538.7,176.9z"/>
	</g>
</g>
</svg>
